[
	{
		"anonymous": false,
		"inputs": [
			{
				"indexed": false,
				"internalType": "uint256",
				"name": "_proposalId",
				"type": "uint256"
			}
		],
		"name": "ProposalCreated",
		"type": "event"
	},
	{
		"anonymous": false,
		"inputs": [
			{
				"indexed": false,
				"internalType": "uint256",
				"name": "_proposalId",
				"type": "uint256"
			}
		],
		"name": "ProposalExecuted",
		"type": "event"
	},
	{
		"anonymous": false,
		"inputs": [
			{
				"indexed": false,
				"internalType": "uint256",
				"name": "_proposalId",
				"type": "uint256"
			},
			{
				"indexed": false,
				"internalType": "address",
				"name": "_rootNode",
				"type": "address"
			}
		],
		"name": "RootNodeApproved",
		"type": "event"
	},
	{
		"inputs": [],
		"name": "proposalsCount",
		"outputs": [
			{
				"internalType": "uint256",
				"name": "",
				"type": "uint256"
			}
		],
		"stateMutability": "view",
		"type": "function"
	},
	{
		"inputs": [
			{
				"internalType": "uint256",
				"name": "",
				"type": "uint256"
			}
		],
		"name": "voteCount",
		"outputs": [
			{
				"internalType": "uint256",
				"name": "",
				"type": "uint256"
			}
		],
		"stateMutability": "view",
		"type": "function"
	},
	{
		"inputs": [
			{
				"internalType": "uint256",
				"name": "",
				"type": "uint256"
			},
			{
				"internalType": "address",
				"name": "",
				"type": "address"
			}
		],
		"name": "voted",
		"outputs": [
			{
				"internalType": "bool",
				"name": "",
				"type": "bool"
			}
		],
		"stateMutability": "view",
		"type": "function"
	},
	{
		"inputs": [
			{
				"internalType": "uint256",
				"name": "_id",
				"type": "uint256"
			}
		],
		"name": "getStatus",
		"outputs": [
			{
				"internalType": "enum ARootNodeApprovalVoting.ProposalStatus",
				"name": "",
				"type": "uint8"
			}
		],
		"stateMutability": "view",
		"type": "function"
	},
	{
		"inputs": [
			{
				"internalType": "uint256",
				"name": "_id",
				"type": "uint256"
			}
		],
		"name": "getProposalStats",
		"outputs": [
			{
				"components": [
					{
						"internalType": "uint256",
						"name": "requiredMajority",
						"type": "uint256"
					},
					{
						"internalType": "uint256",
						"name": "currentMajority",
						"type": "uint256"
					}
				],
				"internalType": "struct ARootNodeApprovalVoting.ProposalStats",
				"name": "stats_",
				"type": "tuple"
			}
		],
		"stateMutability": "view",
		"type": "function"
	},
	{
		"inputs": [
			{
				"internalType": "uint256",
				"name": "_id",
				"type": "uint256"
			}
		],
		"name": "approve",
		"outputs": [],
		"stateMutability": "nonpayable",
		"type": "function"
	}
]