[
	{
		"anonymous": false,
		"inputs": [
			{
				"indexed": false,
				"internalType": "address",
				"name": "_from",
				"type": "address"
			},
			{
				"indexed": false,
				"internalType": "uint256",
				"name": "_amount",
				"type": "uint256"
			},
			{
				"indexed": false,
				"internalType": "bytes",
				"name": "_data",
				"type": "bytes"
			}
		],
		"name": "TokenFallback",
		"type": "event"
	},
	{
		"inputs": [
			{
				"internalType": "address",
				"name": "_from",
				"type": "address"
			},
			{
				"internalType": "uint256",
				"name": "_amount",
				"type": "uint256"
			},
			{
				"internalType": "bytes",
				"name": "_data",
				"type": "bytes"
			}
		],
		"name": "tokenFallback",
		"outputs": [
			{
				"internalType": "bool",
				"name": "",
				"type": "bool"
			}
		],
		"stateMutability": "nonpayable",
		"type": "function"
	},
	{
		"inputs": [],
		"name": "getLastData",
		"outputs": [
			{
				"internalType": "bytes",
				"name": "",
				"type": "bytes"
			}
		],
		"stateMutability": "view",
		"type": "function"
	}
]