[
	{
		"anonymous": false,
		"inputs": [
			{
				"indexed": false,
				"internalType": "uint256",
				"name": "_id",
				"type": "uint256"
			},
			{
				"components": [
					{
						"internalType": "string",
						"name": "remark",
						"type": "string"
					},
					{
						"components": [
							{
								"internalType": "uint256",
								"name": "votingStartTime",
								"type": "uint256"
							},
							{
								"internalType": "uint256",
								"name": "votingEndTime",
								"type": "uint256"
							},
							{
								"internalType": "uint256",
								"name": "vetoEndTime",
								"type": "uint256"
							},
							{
								"internalType": "uint256",
								"name": "proposalExecutionP",
								"type": "uint256"
							},
							{
								"internalType": "uint256",
								"name": "requiredQuorum",
								"type": "uint256"
							},
							{
								"internalType": "uint256",
								"name": "requiredMajority",
								"type": "uint256"
							},
							{
								"internalType": "uint256",
								"name": "requiredSMajority",
								"type": "uint256"
							},
							{
								"internalType": "uint256",
								"name": "requiredSQuorum",
								"type": "uint256"
							}
						],
						"internalType": "struct IVoting.VotingParams",
						"name": "params",
						"type": "tuple"
					},
					{
						"components": [
							{
								"internalType": "uint256",
								"name": "weightFor",
								"type": "uint256"
							},
							{
								"internalType": "uint256",
								"name": "weightAgainst",
								"type": "uint256"
							},
							{
								"internalType": "uint256",
								"name": "vetosCount",
								"type": "uint256"
							}
						],
						"internalType": "struct IVoting.VotingCounters",
						"name": "counters",
						"type": "tuple"
					},
					{
						"internalType": "bool",
						"name": "executed",
						"type": "bool"
					}
				],
				"indexed": false,
				"internalType": "struct IVoting.BaseProposal",
				"name": "_proposal",
				"type": "tuple"
			}
		],
		"name": "ProposalCreated",
		"type": "event"
	},
	{
		"anonymous": false,
		"inputs": [
			{
				"indexed": true,
				"internalType": "uint256",
				"name": "id",
				"type": "uint256"
			},
			{
				"indexed": true,
				"internalType": "address",
				"name": "sender",
				"type": "address"
			}
		],
		"name": "VetoOccurred",
		"type": "event"
	},
	{
		"inputs": [
			{
				"internalType": "uint256",
				"name": "_proposalId",
				"type": "uint256"
			}
		],
		"name": "execute",
		"outputs": [],
		"stateMutability": "nonpayable",
		"type": "function"
	},
	{
		"inputs": [
			{
				"internalType": "uint256",
				"name": "_proposalId",
				"type": "uint256"
			}
		],
		"name": "getProposal",
		"outputs": [
			{
				"components": [
					{
						"internalType": "string",
						"name": "remark",
						"type": "string"
					},
					{
						"components": [
							{
								"internalType": "uint256",
								"name": "votingStartTime",
								"type": "uint256"
							},
							{
								"internalType": "uint256",
								"name": "votingEndTime",
								"type": "uint256"
							},
							{
								"internalType": "uint256",
								"name": "vetoEndTime",
								"type": "uint256"
							},
							{
								"internalType": "uint256",
								"name": "proposalExecutionP",
								"type": "uint256"
							},
							{
								"internalType": "uint256",
								"name": "requiredQuorum",
								"type": "uint256"
							},
							{
								"internalType": "uint256",
								"name": "requiredMajority",
								"type": "uint256"
							},
							{
								"internalType": "uint256",
								"name": "requiredSMajority",
								"type": "uint256"
							},
							{
								"internalType": "uint256",
								"name": "requiredSQuorum",
								"type": "uint256"
							}
						],
						"internalType": "struct IVoting.VotingParams",
						"name": "params",
						"type": "tuple"
					},
					{
						"components": [
							{
								"internalType": "uint256",
								"name": "weightFor",
								"type": "uint256"
							},
							{
								"internalType": "uint256",
								"name": "weightAgainst",
								"type": "uint256"
							},
							{
								"internalType": "uint256",
								"name": "vetosCount",
								"type": "uint256"
							}
						],
						"internalType": "struct IVoting.VotingCounters",
						"name": "counters",
						"type": "tuple"
					},
					{
						"internalType": "bool",
						"name": "executed",
						"type": "bool"
					}
				],
				"internalType": "struct IVoting.BaseProposal",
				"name": "",
				"type": "tuple"
			}
		],
		"stateMutability": "view",
		"type": "function"
	},
	{
		"inputs": [
			{
				"internalType": "uint256",
				"name": "_proposalId",
				"type": "uint256"
			}
		],
		"name": "getProposalStats",
		"outputs": [
			{
				"components": [
					{
						"internalType": "uint256",
						"name": "requiredQuorum",
						"type": "uint256"
					},
					{
						"internalType": "uint256",
						"name": "currentQuorum",
						"type": "uint256"
					},
					{
						"internalType": "uint256",
						"name": "requiredMajority",
						"type": "uint256"
					},
					{
						"internalType": "uint256",
						"name": "currentMajority",
						"type": "uint256"
					},
					{
						"internalType": "uint256",
						"name": "currentVetoPercentage",
						"type": "uint256"
					}
				],
				"internalType": "struct IVoting.VotingStats",
				"name": "",
				"type": "tuple"
			}
		],
		"stateMutability": "view",
		"type": "function"
	},
	{
		"inputs": [
			{
				"internalType": "uint256",
				"name": "_proposalId",
				"type": "uint256"
			}
		],
		"name": "getVetosNumber",
		"outputs": [
			{
				"internalType": "uint256",
				"name": "",
				"type": "uint256"
			}
		],
		"stateMutability": "view",
		"type": "function"
	},
	{
		"inputs": [
			{
				"internalType": "uint256",
				"name": "_proposalId",
				"type": "uint256"
			}
		],
		"name": "getVetosPercentage",
		"outputs": [
			{
				"internalType": "uint256",
				"name": "",
				"type": "uint256"
			}
		],
		"stateMutability": "view",
		"type": "function"
	},
	{
		"inputs": [
			{
				"internalType": "uint256",
				"name": "_proposalId",
				"type": "uint256"
			}
		],
		"name": "veto",
		"outputs": [],
		"stateMutability": "nonpayable",
		"type": "function"
	},
	{
		"inputs": [
			{
				"internalType": "uint256",
				"name": "_proposalId",
				"type": "uint256"
			}
		],
		"name": "voteAgainst",
		"outputs": [],
		"stateMutability": "nonpayable",
		"type": "function"
	},
	{
		"inputs": [
			{
				"internalType": "uint256",
				"name": "_proposalId",
				"type": "uint256"
			}
		],
		"name": "voteFor",
		"outputs": [],
		"stateMutability": "nonpayable",
		"type": "function"
	}
]