[
	{
		"inputs": [
			{
				"internalType": "address",
				"name": "_exp",
				"type": "address"
			}
		],
		"name": "addMember",
		"outputs": [],
		"stateMutability": "nonpayable",
		"type": "function"
	},
	{
		"inputs": [],
		"name": "getLimit",
		"outputs": [
			{
				"internalType": "uint256",
				"name": "",
				"type": "uint256"
			}
		],
		"stateMutability": "view",
		"type": "function"
	},
	{
		"inputs": [],
		"name": "getMembers",
		"outputs": [
			{
				"internalType": "address[]",
				"name": "",
				"type": "address[]"
			}
		],
		"stateMutability": "view",
		"type": "function"
	},
	{
		"inputs": [],
		"name": "getSize",
		"outputs": [
			{
				"internalType": "uint256",
				"name": "",
				"type": "uint256"
			}
		],
		"stateMutability": "view",
		"type": "function"
	},
	{
		"inputs": [
			{
				"internalType": "address",
				"name": "_exp",
				"type": "address"
			}
		],
		"name": "isMember",
		"outputs": [
			{
				"internalType": "bool",
				"name": "",
				"type": "bool"
			}
		],
		"stateMutability": "view",
		"type": "function"
	},
	{
		"inputs": [
			{
				"internalType": "address",
				"name": "_exp",
				"type": "address"
			}
		],
		"name": "removeMember",
		"outputs": [],
		"stateMutability": "nonpayable",
		"type": "function"
	},
	{
		"inputs": [
			{
				"internalType": "address",
				"name": "_oldExp",
				"type": "address"
			},
			{
				"internalType": "address",
				"name": "_newExp",
				"type": "address"
			}
		],
		"name": "swapMember",
		"outputs": [],
		"stateMutability": "nonpayable",
		"type": "function"
	}
]