[
	{
		"inputs": [],
		"stateMutability": "nonpayable",
		"type": "constructor"
	},
	{
		"anonymous": false,
		"inputs": [
			{
				"indexed": true,
				"internalType": "address",
				"name": "_user",
				"type": "address"
			},
			{
				"indexed": false,
				"internalType": "uint256",
				"name": "_vaultId",
				"type": "uint256"
			},
			{
				"indexed": true,
				"internalType": "address",
				"name": "_bidder",
				"type": "address"
			},
			{
				"indexed": false,
				"internalType": "uint256",
				"name": "_bid",
				"type": "uint256"
			}
		],
		"name": "AuctionStarted",
		"type": "event"
	},
	{
		"anonymous": false,
		"inputs": [
			{
				"indexed": true,
				"internalType": "address",
				"name": "_user",
				"type": "address"
			},
			{
				"indexed": true,
				"internalType": "uint256",
				"name": "_vaultId",
				"type": "uint256"
			},
			{
				"indexed": true,
				"internalType": "address",
				"name": "_bidder",
				"type": "address"
			},
			{
				"indexed": false,
				"internalType": "uint256",
				"name": "_bid",
				"type": "uint256"
			}
		],
		"name": "Bid",
		"type": "event"
	},
	{
		"anonymous": false,
		"inputs": [
			{
				"indexed": true,
				"internalType": "address",
				"name": "_user",
				"type": "address"
			},
			{
				"indexed": false,
				"internalType": "uint256",
				"name": "_vaultId",
				"type": "uint256"
			},
			{
				"components": [
					{
						"internalType": "enum LiquidationAuction.AuctionStatus",
						"name": "status",
						"type": "uint8"
					},
					{
						"internalType": "address",
						"name": "bidder",
						"type": "address"
					},
					{
						"internalType": "uint256",
						"name": "highestBid",
						"type": "uint256"
					},
					{
						"internalType": "uint256",
						"name": "endTime",
						"type": "uint256"
					}
				],
				"indexed": false,
				"internalType": "struct LiquidationAuction.AuctionInfo",
				"name": "_info",
				"type": "tuple"
			}
		],
		"name": "Executed",
		"type": "event"
	},
	{
		"inputs": [
			{
				"internalType": "address",
				"name": "",
				"type": "address"
			},
			{
				"internalType": "uint256",
				"name": "",
				"type": "uint256"
			}
		],
		"name": "auctions",
		"outputs": [
			{
				"internalType": "enum LiquidationAuction.AuctionStatus",
				"name": "status",
				"type": "uint8"
			},
			{
				"internalType": "address",
				"name": "bidder",
				"type": "address"
			},
			{
				"internalType": "uint256",
				"name": "highestBid",
				"type": "uint256"
			},
			{
				"internalType": "uint256",
				"name": "endTime",
				"type": "uint256"
			}
		],
		"stateMutability": "view",
		"type": "function"
	},
	{
		"inputs": [
			{
				"internalType": "address",
				"name": "_registry",
				"type": "address"
			},
			{
				"internalType": "string",
				"name": "_stc",
				"type": "string"
			}
		],
		"name": "initialize",
		"outputs": [],
		"stateMutability": "nonpayable",
		"type": "function"
	},
	{
		"inputs": [
			{
				"internalType": "address",
				"name": "_user",
				"type": "address"
			},
			{
				"internalType": "uint256",
				"name": "_vaultId",
				"type": "uint256"
			},
			{
				"internalType": "uint256",
				"name": "_bid",
				"type": "uint256"
			}
		],
		"name": "startAuction",
		"outputs": [
			{
				"internalType": "bool",
				"name": "",
				"type": "bool"
			}
		],
		"stateMutability": "nonpayable",
		"type": "function"
	},
	{
		"inputs": [
			{
				"internalType": "address",
				"name": "_user",
				"type": "address"
			},
			{
				"internalType": "uint256",
				"name": "_vaultId",
				"type": "uint256"
			},
			{
				"internalType": "uint256",
				"name": "_bid",
				"type": "uint256"
			}
		],
		"name": "bid",
		"outputs": [
			{
				"internalType": "bool",
				"name": "",
				"type": "bool"
			}
		],
		"stateMutability": "nonpayable",
		"type": "function"
	},
	{
		"inputs": [
			{
				"internalType": "address",
				"name": "_user",
				"type": "address"
			},
			{
				"internalType": "uint256",
				"name": "_vaultId",
				"type": "uint256"
			}
		],
		"name": "execute",
		"outputs": [
			{
				"internalType": "bool",
				"name": "",
				"type": "bool"
			}
		],
		"stateMutability": "nonpayable",
		"type": "function"
	},
	{
		"inputs": [
			{
				"internalType": "address",
				"name": "_user",
				"type": "address"
			},
			{
				"internalType": "uint256",
				"name": "_vaultId",
				"type": "uint256"
			}
		],
		"name": "getRaisingBid",
		"outputs": [
			{
				"internalType": "uint256",
				"name": "",
				"type": "uint256"
			}
		],
		"stateMutability": "view",
		"type": "function"
	}
]